Results Notebook
…
##  V8             3.4.0      2020-11-04 [1] CRAN (R 4.0.2)              
##  vctrs          0.3.7      2021-03-29 [1] CRAN (R 4.0.4)              
##  viridisLite    0.3.0      2018-02-01 [1] CRAN (R 4.0.1)              
##  webshot        0.5.2      2019-11-22 [1] CRAN (R 4.0.2)              
##  withr          2.4.1      2021-01-26 [1] CRAN (R 4.0.2)              
##  wordcloud    * 2.6        2018-08-24 [1] CRAN (R 4.0.2)              
##  xfun           0.22       2021-03-11 [1] CRAN (R 4.0.2)              
##  xml2           1.3.2      2020-04-23 [1] CRAN (R 4.0.2)              
##  yaml           2.2.1      2020-02-01 [1] CRAN (R 4.0.2)              
##  zip            2.1.1      2020-08-27 [1] CRAN (R 4.0.2)              
##  zoo            1.8-9      2021-03-09 [1] CRAN (R 4.0.2)              
## 
## [1] /Library/Frameworks/R.framework/Versions/4.0/Resources/library

## # A tibble: 37 x 20
##    name   data_type ordered value_labels  n_missing complete_rate n_unique empty
##    <chr>  <chr>     <lgl>   <chr>             <int>         <dbl>    <int> <int>
##  1 DYUK   character NA       <NA>               570         0.326      276     0
##  2 STUK   character NA       <NA>               562         0.336      282     0
##  3 UKNAT factor    FALSE   "1. 1,\n2. 2        24         0.972        4    NA
##  4 RESID factor    FALSE   "1. 1,\n2. 2"         0         1            2    NA
##  5 GENDER factor    FALSE   "1. 1,\n2. 2         0         1            3    NA
##  6 condi factor    FALSE   "1. Dynamic,         0         1            3    NA
##  7 condi factor    FALSE   "1. Dynamic,       286         0.662        2    NA
##  8 gende factor    FALSE   "1. 1,\n2. 2"         3         0.996        2    NA
##  9 agebi  factor    FALSE   "1. younger,         0         1            2    NA
## 10 NATIO numeric   NA       <NA>                 0         1           NA    NA
## #  with 27 more rows, and 12 more variables: top_counts <chr>, min <chr>,
## #   median <chr>, max <chr>, mean <dbl>, sd <dbl>, whitespace <int>,
## #   hist <chr>, DYUK <chr>, STUK <chr>, NATIONALITY <chr>, label <chr>
